src/gol_tb.vcd
$date
	Wed Apr 10 08:59:24 2024
$end
$version
	Icarus Verilog
$end
$timescale
	1ps
$end
$scope module gol_tb $end
$var wire 1 ! write $end
$var wire 1 " dout $end
$var wire 1 # done $end
$var wire 17 $ addr [16:0] $end
$var parameter 32 % CLK_PERIOD $end
$var parameter 32 & SIM_TIME $end
$var reg 1 ' clk $end
$var reg 1 ( din $end
$var reg 1 ) rst $end
$scope module dut $end
$var wire 1 ' clk $end
$var wire 1 ( din $end
$var wire 1 ) rst $end
$var wire 16 * value [15:0] $end
$var parameter 32 + HEIGHT $end
$var parameter 4 , STATE_CHECK_CENTER $end
$var parameter 4 - STATE_INIT $end
$var parameter 4 . STATE_LOOP_I $end
$var parameter 4 / STATE_LOOP_J $end
$var parameter 4 0 STATE_LOOP_X $end
$var parameter 4 1 STATE_LOOP_Y $end
$var parameter 4 2 STATE_READ $end
$var parameter 4 3 STATE_READ_WAIT $end
$var parameter 4 4 STATE_UPDATE_CELL $end
$var parameter 4 5 STATE_WRITE $end
$var parameter 4 6 STATE_WRITE_END $end
$var parameter 32 7 WIDTH $end
$var reg 17 8 addr [16:0] $end
$var reg 1 9 center $end
$var reg 32 : cnt0 [31:0] $end
$var reg 1 # done $end
$var reg 1 " dout $end
$var reg 2 ; i [1:0] $end
$var reg 2 < j [1:0] $end
$var reg 3 = neigbours [2:0] $end
$var reg 4 > state [3:0] $end
$var reg 1 ! write $end
$var reg 9 ? x [8:0] $end
$var reg 9 @ y [8:0] $end
$scope module lfsr0 $end
$var wire 1 ' i_clk $end
$var wire 1 A i_rst_n $end
$var reg 32 B cnt [31:0] $end
$var reg 16 C o_data [15:0] $end
$upscope $end
$upscope $end
$upscope $end
$enddefinitions $end
$comment Show the parameter values. $end
$dumpall
b1010 7
b1001 6
b1000 5
b111 4
b1010 3
b101 2
b1 1
b10 0
b100 /
b11 .
b0 -
b110 ,
b1010 +
b1111101000 &
b1010 %
$end
#0
$dumpvars
b0 C
b10010001101000101011001111000 B
0A
b0 @
b0 ?
b1 >
b0 =
b0 <
b0 ;
b0 :
09
b0 8
b0 *
1)
0(
0'
b0 $
0#
0"
0!
$end
#5000
1'
#10000
1#
1!
b1 :
0'
1A
0)
#15000
b101011001111000 *
b101011001111000 C
b100100011010001010110011110000 B
1'
#20000
b1 $
b1 8
b10 :
0'
#25000
b1010110011110000 *
b1010110011110000 C
b1001000110100010101100111100001 B
1'
#30000
b10 $
b10 8
b11 :
0'
#35000
b101100111100001 *
b101100111100001 C
b10010001101000101011001111000011 B
1'
#40000
1"
b11 $
b11 8
b100 :
0'
#45000
b1011001111000011 *
b1011001111000011 C
b100011010001010110011110000110 B
1'
#50000
b100 $
b100 8
b101 :
0'
#55000
b110011110000110 *
b110011110000110 C
b1000110100010101100111100001101 B
1'
#60000
0"
b101 $
b101 8
b110 :
0'
#65000
b1100111100001101 *
b1100111100001101 C
b10001101000101011001111000011010 B
1'
#70000
1"
b110 $
b110 8
b111 :
0'
#75000
b1001111000011010 *
b1001111000011010 C
b11010001010110011110000110101 B
1'
#80000
0"
b111 $
b111 8
b1000 :
0'
#85000
b11110000110101 *
b11110000110101 C
b110100010101100111100001101011 B
1'
#90000
1"
b1000 $
b1000 8
b1001 :
0'
#95000
b111100001101011 *
b111100001101011 C
b1101000101011001111000011010110 B
1'
#100000
b1001 $
b1001 8
b1010 :
0'
#105000
b1111000011010110 *
b1111000011010110 C
b11010001010110011110000110101101 B
1'
#110000
0"
b1010 $
b1010 8
b1011 :
0'
#115000
b1110000110101101 *
b1110000110101101 C
b10100010101100111100001101011010 B
1'
#120000
1"
b1011 $
b1011 8
b1100 :
0'
#125000
b1100001101011010 *
b1100001101011010 C
b1000101011001111000011010110101 B
1'
#130000
0"
b1100 $
b1100 8
b1101 :
0'
#135000
b1000011010110101 *
b1000011010110101 C
b10001010110011110000110101101011 B
1'
#140000
1"
b1101 $
b1101 8
b1110 :
0'
#145000
b110101101011 *
b110101101011 C
b10101100111100001101011010111 B
1'
#150000
b1110 $
b1110 8
b1111 :
0'
#155000
b1101011010111 *
b1101011010111 C
b101011001111000011010110101111 B
1'
#160000
b1111 $
b1111 8
b10000 :
0'
#165000
b11010110101111 *
b11010110101111 C
b1010110011110000110101101011111 B
1'
#170000
b10000 $
b10000 8
b10001 :
0'
#175000
b110101101011111 *
b110101101011111 C
b10101100111100001101011010111111 B
1'
#180000
b10001 $
b10001 8
b10010 :
0'
#185000
b1101011010111111 *
b1101011010111111 C
b1011001111000011010110101111111 B
1'
#190000
b10010 $
b10010 8
b10011 :
0'
#195000
b1010110101111111 *
b1010110101111111 C
b10110011110000110101101011111111 B
1'
#200000
b10011 $
b10011 8
b10100 :
0'
#205000
b101101011111111 *
b101101011111111 C
b1100111100001101011010111111111 B
1'
#210000
b10100 $
b10100 8
b10101 :
0'
#215000
b1011010111111111 *
b1011010111111111 C
b11001111000011010110101111111110 B
1'
#220000
b10101 $
b10101 8
b10110 :
0'
#225000
b110101111111110 *
b110101111111110 C
b10011110000110101101011111111100 B
1'
#230000
0"
b10110 $
b10110 8
b10111 :
0'
#235000
b1101011111111100 *
b1101011111111100 C
b111100001101011010111111111001 B
1'
#240000
b10111 $
b10111 8
b11000 :
0'
#245000
b1010111111111001 *
b1010111111111001 C
b1111000011010110101111111110011 B
1'
#250000
1"
b11000 $
b11000 8
b11001 :
0'
#255000
b101111111110011 *
b101111111110011 C
b11110000110101101011111111100111 B
1'
#260000
b11001 $
b11001 8
b11010 :
0'
#265000
b1011111111100111 *
b1011111111100111 C
b11100001101011010111111111001110 B
1'
#270000
b11010 $
b11010 8
b11011 :
0'
#275000
b111111111001110 *
b111111111001110 C
b11000011010110101111111110011100 B
1'
#280000
0"
b11011 $
b11011 8
b11100 :
0'
#285000
b1111111110011100 *
b1111111110011100 C
b10000110101101011111111100111001 B
1'
#290000
b11100 $
b11100 8
b11101 :
0'
#295000
b1111111100111001 *
b1111111100111001 C
b1101011010111111111001110010 B
1'
#300000
1"
b11101 $
b11101 8
b11110 :
0'
#305000
b1111111001110010 *
b1111111001110010 C
b11010110101111111110011100101 B
1'
#310000
0"
b11110 $
b11110 8
b11111 :
0'
#315000
b1111110011100101 *
b1111110011100101 C
b110101101011111111100111001010 B
1'
#320000
1"
b11111 $
b11111 8
b100000 :
0'
#325000
b1111100111001010 *
b1111100111001010 C
b1101011010111111111001110010100 B
1'
#330000
0"
b100000 $
b100000 8
b100001 :
0'
#335000
b1111001110010100 *
b1111001110010100 C
b11010110101111111110011100101000 B
1'
#340000
b100001 $
b100001 8
b100010 :
0'
#345000
b1110011100101000 *
b1110011100101000 C
b10101101011111111100111001010000 B
1'
#350000
b100010 $
b100010 8
b100011 :
0'
#355000
b1100111001010000 *
b1100111001010000 C
b1011010111111111001110010100000 B
1'
#360000
b100011 $
b100011 8
b100100 :
0'
#365000
b1001110010100000 *
b1001110010100000 C
b10110101111111110011100101000000 B
1'
#370000
b100100 $
b100100 8
b100101 :
0'
#375000
b11100101000000 *
b11100101000000 C
b1101011111111100111001010000000 B
1'
#380000
b100101 $
b100101 8
b100110 :
0'
#385000
b111001010000000 *
b111001010000000 C
b11010111111111001110010100000000 B
1'
#390000
b100110 $
b100110 8
b100111 :
0'
#395000
b1110010100000000 *
b1110010100000000 C
b10101111111110011100101000000001 B
1'
#400000
b100111 $
b100111 8
b101000 :
0'
#405000
b1100101000000001 *
b1100101000000001 C
b1011111111100111001010000000011 B
1'
#410000
1"
b101000 $
b101000 8
b101001 :
0'
#415000
b1001010000000011 *
b1001010000000011 C
b10111111111001110010100000000111 B
1'
#420000
b101001 $
b101001 8
b101010 :
0'
#425000
b10100000000111 *
b10100000000111 C
b1111111110011100101000000001111 B
1'
#430000
b101010 $
b101010 8
b101011 :
0'
#435000
b101000000001111 *
b101000000001111 C
b11111111100111001010000000011111 B
1'
#440000
b101011 $
b101011 8
b101100 :
0'
#445000
b1010000000011111 *
b1010000000011111 C
b11111111001110010100000000111111 B
1'
#450000
b101100 $
b101100 8
b101101 :
0'
#455000
b100000000111111 *
b100000000111111 C
b11111110011100101000000001111111 B
1'
#460000
b101101 $
b101101 8
b101110 :
0'
#465000
b1000000001111111 *
b1000000001111111 C
b11111100111001010000000011111110 B
1'
#470000
b101110 $
b101110 8
b101111 :
0'
#475000
b11111110 *
b11111110 C
b11111001110010100000000111111101 B
1'
#480000
0"
b101111 $
b101111 8
b110000 :
0'
#485000
b111111101 *
b111111101 C
b11110011100101000000001111111010 B
1'
#490000
1"
b110000 $
b110000 8
b110001 :
0'
#495000
b1111111010 *
b1111111010 C
b11100111001010000000011111110100 B
1'
#500000
0"
b110001 $
b110001 8
b110010 :
0'
#505000
b11111110100 *
b11111110100 C
b11001110010100000000111111101000 B
1'
#510000
b110010 $
b110010 8
b110011 :
0'
#515000
b111111101000 *
b111111101000 C
b10011100101000000001111111010001 B
1'
#520000
b110011 $
b110011 8
b110100 :
0'
#525000
b1111111010001 *
b1111111010001 C
b111001010000000011111110100010 B
1'
#530000
1"
b110100 $
b110100 8
b110101 :
0'
#535000
b11111110100010 *
b11111110100010 C
b1110010100000000111111101000101 B
1'
#540000
0"
b110101 $
b110101 8
b110110 :
0'
#545000
b111111101000101 *
b111111101000101 C
b11100101000000001111111010001010 B
1'
#550000
1"
b110110 $
b110110 8
b110111 :
0'
#555000
b1111111010001010 *
b1111111010001010 C
b11001010000000011111110100010100 B
1'
#560000
0"
b110111 $
b110111 8
b111000 :
0'
#565000
b1111110100010100 *
b1111110100010100 C
b10010100000000111111101000101000 B
1'
#570000
b111000 $
b111000 8
b111001 :
0'
#575000
b1111101000101000 *
b1111101000101000 C
b101000000001111111010001010001 B
1'
#580000
b111001 $
b111001 8
b111010 :
0'
#585000
b1111010001010001 *
b1111010001010001 C
b1010000000011111110100010100011 B
1'
#590000
1"
b111010 $
b111010 8
b111011 :
0'
#595000
b1110100010100011 *
b1110100010100011 C
b10100000000111111101000101000110 B
1'
#600000
b111011 $
b111011 8
b111100 :
0'
#605000
b1101000101000110 *
b1101000101000110 C
b1000000001111111010001010001101 B
1'
#610000
0"
b111100 $
b111100 8
b111101 :
0'
#615000
b1010001010001101 *
b1010001010001101 C
b10000000011111110100010100011010 B
1'
#620000
1"
b111101 $
b111101 8
b111110 :
0'
#625000
b100010100011010 *
b100010100011010 C
b111111101000101000110100 B
1'
#630000
0"
b111110 $
b111110 8
b111111 :
0'
#635000
b1000101000110100 *
b1000101000110100 C
b1111111010001010001101001 B
1'
#640000
b111111 $
b111111 8
b1000000 :
0'
#645000
b1010001101001 *
b1010001101001 C
b11111110100010100011010010 B
1'
#650000
0#
0!
b0 $
b0 8
b1000001 :
0'
#655000
b10100011010010 *
b10100011010010 C
b111111101000101000110100101 B
1'
#660000
b10 >
0'
#665000
b101000110100101 *
b101000110100101 C
b1111111010001010001101001010 B
1'
#670000
b0 >
0'
#675000
b1010001101001010 *
b1010001101001010 C
b11111110100010100011010010101 B
1'
#680000
b1 >
b1 <
0'
#685000
b100011010010101 *
b100011010010101 C
b111111101000101000110100101010 B
1'
#690000
b10 >
b1 $
b1 8
0'
#695000
b1000110100101010 *
b1000110100101010 C
b1111111010001010001101001010100 B
1'
#700000
b0 >
0'
#705000
b1101001010100 *
b1101001010100 C
b11111110100010100011010010101000 B
1'
#710000
b1 >
b10 <
0'
#715000
b11010010101000 *
b11010010101000 C
b11111101000101000110100101010000 B
1'
#720000
b10 >
b10 $
b10 8
0'
#725000
b110100101010000 *
b110100101010000 C
b11111010001010001101001010100000 B
1'
#730000
b0 >
0'
#735000
b1101001010100000 *
b1101001010100000 C
b11110100010100011010010101000000 B
1'
#740000
b1 >
b1 ;
b0 <
0'
#745000
b1010010101000000 *
b1010010101000000 C
b11101000101000110100101010000001 B
1'
#750000
b10 >
b1010 $
b1010 8
0'
#755000
b100101010000001 *
b100101010000001 C
b11010001010001101001010100000011 B
1'
#760000
b0 >
0'
#765000
b1001010100000011 *
b1001010100000011 C
b10100010100011010010101000000110 B
1'
#770000
b1 >
b1 <
0'
#775000
b10101000000110 *
b10101000000110 C
b1000101000110100101010000001101 B
1'
#780000
b10 >
b1011 $
b1011 8
0'
#785000
b101010000001101 *
b101010000001101 C
b10001010001101001010100000011010 B
1'
#790000
b0 >
0'
#795000
b1010100000011010 *
b1010100000011010 C
b10100011010010101000000110101 B
1'
#800000
b1 >
b10 <
0'
#805000
b101000000110101 *
b101000000110101 C
b101000110100101010000001101010 B
1'
#810000
b10 >
b1100 $
b1100 8
0'
#815000
b1010000001101010 *
b1010000001101010 C
b1010001101001010100000011010101 B
1'
#820000
b0 >
0'
#825000
b100000011010101 *
b100000011010101 C
b10100011010010101000000110101010 B
1'
#830000
b1 >
b10 ;
b0 <
0'
#835000
b1000000110101010 *
b1000000110101010 C
b1000110100101010000001101010100 B
1'
#840000
b10 >
b10100 $
b10100 8
0'
#845000
b1101010100 *
b1101010100 C
b10001101001010100000011010101001 B
1'
#850000
b0 >
0'
#855000
b11010101001 *
b11010101001 C
b11010010101000000110101010010 B
1'
#860000
b1 >
b1 <
0'
#865000
b110101010010 *
b110101010010 C
b110100101010000001101010100101 B
1'
#870000
b10 >
b10101 $
b10101 8
0'
#875000
b1101010100101 *
b1101010100101 C
b1101001010100000011010101001011 B
1'
#880000
b0 >
0'
#885000
b11010101001011 *
b11010101001011 C
b11010010101000000110101010010111 B
1'
#890000
b1 >
b10 <
0'
#895000
b110101010010111 *
b110101010010111 C
b10100101010000001101010100101111 B
1'
#900000
b10 >
b10110 $
b10110 8
0'
#905000
b1101010100101111 *
b1101010100101111 C
b1001010100000011010101001011111 B
1'
#910000
b11 >
0'
#915000
b1010101001011111 *
b1010101001011111 C
b10010101000000110101010010111110 B
1'
#920000
b0 >
1!
b1011 $
b1011 8
0'
#925000
b101010010111110 *
b101010010111110 C
b101010000001101010100101111101 B
1'
#930000
b1 >
0!
b1 ?
b0 ;
b0 <
0'
#935000
b1010100101111101 *
b1010100101111101 C
b1010100000011010101001011111011 B
1'
#940000
b10 >
b1 $
b1 8
0'
#945000
b101001011111011 *
b101001011111011 C
b10101000000110101010010111110110 B
1'
#950000
b0 >
0'
#955000
b1010010111110110 *
b1010010111110110 C
b1010000001101010100101111101101 B
1'
#960000
b1 >
b1 <
0'
#965000
b100101111101101 *
b100101111101101 C
b10100000011010101001011111011010 B
1'
#970000
b10 >
b10 $
b10 8
0'
#975000
b1001011111011010 *
b1001011111011010 C
b1000000110101010010111110110100 B
1'
#980000
b0 >
0'
#985000
b10111110110100 *
b10111110110100 C
b10000001101010100101111101101000 B
1'
#990000
b1 >
b10 <
0'
#995000
b101111101101000 *
b101111101101000 C
b11010101001011111011010001 B
1'
#1000000
b10 >
b11 $
b11 8
0'
#1005000
b1011111011010001 *
b1011111011010001 C
b110101010010111110110100010 B
1'
#1010000
b0 >
0'
#1015000
b111110110100010 *
b111110110100010 C
b1101010100101111101101000100 B
1'
#1020000
b1 >
b1 ;
b0 <
0'
#1025000
b1111101101000100 *
b1111101101000100 C
b11010101001011111011010001001 B
1'
#1030000
b10 >
b1011 $
b1011 8
0'
#1035000
b1111011010001001 *
b1111011010001001 C
b110101010010111110110100010011 B
1'
#1040000
b0 >
0'
#1045000
b1110110100010011 *
b1110110100010011 C
b1101010100101111101101000100110 B
1'
#1050000
b1 >
b1 <
0'
#1055000
b1101101000100110 *
b1101101000100110 C
b11010101001011111011010001001101 B
1'
#1060000
b10 >
b1100 $
b1100 8
0'
#1065000
b1011010001001101 *
b1011010001001101 C
b10101010010111110110100010011011 B
1'
#1070000
b0 >
0'
#1075000
b110100010011011 *
b110100010011011 C
b1010100101111101101000100110111 B
1'
#1080000
b1 >
b10 <
0'
#1085000
b1101000100110111 *
b1101000100110111 C
b10101001011111011010001001101110 B
1'
#1090000
b10 >
b1101 $
b1101 8
0'
#1095000
b1010001001101110 *
b1010001001101110 C
b1010010111110110100010011011100 B
1'
#1100000
b0 >
0'
#1105000
b100010011011100 *
b100010011011100 C
b10100101111101101000100110111000 B
1'
#1110000
b1 >
b10 ;
b0 <
0'
#1115000
b1000100110111000 *
b1000100110111000 C
b1001011111011010001001101110000 B
1'
#1120000
b10 >
b10101 $
b10101 8
0'
#1125000
b1001101110000 *
b1001101110000 C
b10010111110110100010011011100000 B
1'
#1130000
b0 >
0'
#1135000
b10011011100000 *
b10011011100000 C
b101111101101000100110111000000 B
1'
#1140000
b1 >
b1 <
0'
#1145000
b100110111000000 *
b100110111000000 C
b1011111011010001001101110000000 B
1'
#1150000
b10 >
b10110 $
b10110 8
0'
#1155000
b1001101110000000 *
b1001101110000000 C
b10111110110100010011011100000000 B
1'
#1160000
b0 >
0'
#1165000
b11011100000000 *
b11011100000000 C
b1111101101000100110111000000000 B
1'
#1170000
b1 >
b10 <
0'
#1175000
b110111000000000 *
b110111000000000 C
b11111011010001001101110000000001 B
1'
#1180000
b10 >
b10111 $
b10111 8
0'
#1185000
b1101110000000001 *
b1101110000000001 C
b11110110100010011011100000000010 B
1'
#1190000
b11 >
0'
#1195000
b1011100000000010 *
b1011100000000010 C
b11101101000100110111000000000100 B
1'
#1200000
b0 >
1!
b1100 $
b1100 8
0'
#1205000
b111000000000100 *
b111000000000100 C
b11011010001001101110000000001000 B
1'
#1210000
b1 >
0!
b10 ?
b0 ;
b0 <
0'
#1215000
b1110000000001000 *
b1110000000001000 C
b10110100010011011100000000010000 B
1'
#1220000
b10 >
b10 $
b10 8
0'
#1225000
b1100000000010000 *
b1100000000010000 C
b1101000100110111000000000100000 B
1'
#1230000
b0 >
0'
#1235000
b1000000000100000 *
b1000000000100000 C
b11010001001101110000000001000001 B
1'
#1240000
b1 >
b1 <
0'
#1245000
b1000001 *
b1000001 C
b10100010011011100000000010000011 B
1'
#1250000
b10 >
b11 $
b11 8
0'
#1255000
b10000011 *
b10000011 C
b1000100110111000000000100000111 B
1'
#1260000
b0 >
0'
#1265000
b100000111 *
b100000111 C
b10001001101110000000001000001111 B
1'
#1270000
b1 >
b10 <
0'
#1275000
b1000001111 *
b1000001111 C
b10011011100000000010000011110 B
1'
#1280000
b10 >
b100 $
b100 8
0'
#1285000
b10000011110 *
b10000011110 C
b100110111000000000100000111101 B
1'
#1290000
b0 >
0'
#1295000
b100000111101 *
b100000111101 C
b1001101110000000001000001111010 B
1'
#1300000
b1 >
b1 ;
b0 <
0'
#1305000
b1000001111010 *
b1000001111010 C
b10011011100000000010000011110100 B
1'
#1310000
b10 >
b1100 $
b1100 8
0'
#1315000
b10000011110100 *
b10000011110100 C
b110111000000000100000111101001 B
1'
#1320000
b0 >
0'
#1325000
b100000111101001 *
b100000111101001 C
b1101110000000001000001111010011 B
1'
#1330000
b1 >
b1 <
0'
#1335000
b1000001111010011 *
b1000001111010011 C
b11011100000000010000011110100110 B
1'
#1340000
b10 >
b1101 $
b1101 8
0'
#1345000
b11110100110 *
b11110100110 C
b10111000000000100000111101001100 B
1'
#1350000
b0 >
0'
#1355000
b111101001100 *
b111101001100 C
b1110000000001000001111010011001 B
1'
#1360000
b1 >
b10 <
0'
#1365000
b1111010011001 *
b1111010011001 C
b11100000000010000011110100110010 B
1'
#1370000
b10 >
b1110 $
b1110 8
0'
#1375000
b11110100110010 *
b11110100110010 C
b11000000000100000111101001100100 B
1'
#1380000
b0 >
0'
#1385000
b111101001100100 *
b111101001100100 C
b10000000001000001111010011001000 B
1'
#1390000
b1 >
b10 ;
b0 <
0'
#1395000
b1111010011001000 *
b1111010011001000 C
b10000011110100110010001 B
1'
#1400000
b10 >
b10110 $
b10110 8
0'
#1405000
b1110100110010001 *
b1110100110010001 C
b100000111101001100100010 B
1'
#1410000
b0 >
0'
#1415000
b1101001100100010 *
b1101001100100010 C
b1000001111010011001000100 B
1'
#1420000
b1 >
b1 <
0'
#1425000
b1010011001000100 *
b1010011001000100 C
b10000011110100110010001000 B
1'
#1430000
b10 >
b10111 $
b10111 8
0'
#1435000
b100110010001000 *
b100110010001000 C
b100000111101001100100010000 B
1'
#1440000
b0 >
0'
#1445000
b1001100100010000 *
b1001100100010000 C
b1000001111010011001000100000 B
1'
#1450000
b1 >
b10 <
0'
#1455000
b11001000100000 *
b11001000100000 C
b10000011110100110010001000000 B
1'
#1460000
b10 >
b11000 $
b11000 8
0'
#1465000
b110010001000000 *
b110010001000000 C
b100000111101001100100010000001 B
1'
#1470000
b11 >
0'
#1475000
b1100100010000001 *
b1100100010000001 C
b1000001111010011001000100000010 B
1'
#1480000
b0 >
1!
b1101 $
b1101 8
0'
#1485000
b1001000100000010 *
b1001000100000010 C
b10000011110100110010001000000100 B
1'
#1490000
b1 >
0!
b11 ?
b0 ;
b0 <
0'
#1495000
b10001000000100 *
b10001000000100 C
b111101001100100010000001000 B
1'
#1500000
b10 >
b11 $
b11 8
0'
#1505000
b100010000001000 *
b100010000001000 C
b1111010011001000100000010000 B
1'
#1510000
b0 >
0'
#1515000
b1000100000010000 *
b1000100000010000 C
b11110100110010001000000100001 B
1'
#1520000
b1 >
b1 <
0'
#1525000
b1000000100001 *
b1000000100001 C
b111101001100100010000001000011 B
1'
#1530000
b10 >
b100 $
b100 8
0'
#1535000
b10000001000011 *
b10000001000011 C
b1111010011001000100000010000111 B
1'
#1540000
b0 >
0'
#1545000
b100000010000111 *
b100000010000111 C
b11110100110010001000000100001111 B
1'
#1550000
b1 >
b10 <
0'
#1555000
b1000000100001111 *
b1000000100001111 C
b11101001100100010000001000011110 B
1'
#1560000
b10 >
b101 $
b101 8
0'
#1565000
b1000011110 *
b1000011110 C
b11010011001000100000010000111100 B
1'
#1570000
b0 >
0'
#1575000
b10000111100 *
b10000111100 C
b10100110010001000000100001111000 B
1'
#1580000
b1 >
b1 ;
b0 <
0'
#1585000
b100001111000 *
b100001111000 C
b1001100100010000001000011110000 B
1'
#1590000
b10 >
b1101 $
b1101 8
0'
#1595000
b1000011110000 *
b1000011110000 C
b10011001000100000010000111100001 B
1'
#1600000
b0 >
0'
#1605000
b10000111100001 *
b10000111100001 C
b110010001000000100001111000010 B
1'
#1610000
b1 >
b1 <
0'
#1615000
b100001111000010 *
b100001111000010 C
b1100100010000001000011110000100 B
1'
#1620000
b10 >
b1110 $
b1110 8
0'
#1625000
b1000011110000100 *
b1000011110000100 C
b11001000100000010000111100001000 B
1'
#1630000
b0 >
0'
#1635000
b111100001000 *
b111100001000 C
b10010001000000100001111000010000 B
1'
#1640000
b1 >
b10 <
0'
#1645000
b1111000010000 *
b1111000010000 C
b100010000001000011110000100001 B
1'
#1650000
b10 >
b1111 $
b1111 8
0'
#1655000
b11110000100001 *
b11110000100001 C
b1000100000010000111100001000011 B
1'
#1660000
b0 >
0'
#1665000
b111100001000011 *
b111100001000011 C
b10001000000100001111000010000110 B
1'
#1670000
b1 >
b10 ;
b0 <
0'
#1675000
b1111000010000110 *
b1111000010000110 C
b10000001000011110000100001101 B
1'
#1680000
b10 >
b10111 $
b10111 8
0'
#1685000
b1110000100001101 *
b1110000100001101 C
b100000010000111100001000011011 B
1'
#1690000
b0 >
0'
#1695000
b1100001000011011 *
b1100001000011011 C
b1000000100001111000010000110110 B
1'
#1700000
b1 >
b1 <
0'
#1705000
b1000010000110110 *
b1000010000110110 C
b10000001000011110000100001101101 B
1'
#1710000
b10 >
b11000 $
b11000 8
0'
#1715000
b100001101101 *
b100001101101 C
b10000111100001000011011010 B
1'
#1720000
b0 >
0'
#1725000
b1000011011010 *
b1000011011010 C
b100001111000010000110110100 B
1'
#1730000
b1 >
b10 <
0'
#1735000
b10000110110100 *
b10000110110100 C
b1000011110000100001101101000 B
1'
#1740000
b10 >
b11001 $
b11001 8
0'
#1745000
b100001101101000 *
b100001101101000 C
b10000111100001000011011010001 B
1'
#1750000
b11 >
0'
#1755000
b1000011011010001 *
b1000011011010001 C
b100001111000010000110110100010 B
1'
#1760000
b0 >
1!
b1110 $
b1110 8
0'
#1765000
b110110100010 *
b110110100010 C
b1000011110000100001101101000101 B
1'
#1770000
b1 >
0!
b100 ?
b0 ;
b0 <
0'
#1775000
b1101101000101 *
b1101101000101 C
b10000111100001000011011010001011 B
1'
#1780000
b10 >
b100 $
b100 8
0'
#1785000
b11011010001011 *
b11011010001011 C
b1111000010000110110100010110 B
1'
#1790000
b0 >
0'
#1795000
b110110100010110 *
b110110100010110 C
b11110000100001101101000101100 B
1'
#1800000
b1 >
b1 <
0'
#1805000
b1101101000101100 *
b1101101000101100 C
b111100001000011011010001011000 B
1'
#1810000
b10 >
b101 $
b101 8
0'
#1815000
b1011010001011000 *
b1011010001011000 C
b1111000010000110110100010110000 B
1'
#1820000
b0 >
0'
#1825000
b110100010110000 *
b110100010110000 C
b11110000100001101101000101100000 B
1'
#1830000
b1 >
b10 <
0'
#1835000
b1101000101100000 *
b1101000101100000 C
b11100001000011011010001011000000 B
1'
#1840000
b10 >
b110 $
b110 8
0'
#1845000
b1010001011000000 *
b1010001011000000 C
b11000010000110110100010110000000 B
1'
#1850000
b0 >
0'
#1855000
b100010110000000 *
b100010110000000 C
b10000100001101101000101100000000 B
1'
#1860000
b1 >
b1 ;
b0 <
0'
#1865000
b1000101100000000 *
b1000101100000000 C
b1000011011010001011000000001 B
1'
#1870000
b10 >
b1110 $
b1110 8
0'
#1875000
b1011000000001 *
b1011000000001 C
b10000110110100010110000000010 B
1'
#1880000
b0 >
0'
#1885000
b10110000000010 *
b10110000000010 C
b100001101101000101100000000101 B
1'
#1890000
b1 >
b1 <
0'
#1895000
b101100000000101 *
b101100000000101 C
b1000011011010001011000000001011 B
1'
#1900000
b10 >
b1111 $
b1111 8
0'
#1905000
b1011000000001011 *
b1011000000001011 C
b10000110110100010110000000010111 B
1'
#1910000
b0 >
0'
#1915000
b110000000010111 *
b110000000010111 C
b1101101000101100000000101111 B
1'
#1920000
b1 >
b10 <
0'
#1925000
b1100000000101111 *
b1100000000101111 C
b11011010001011000000001011111 B
1'
#1930000
b10 >
b10000 $
b10000 8
0'
#1935000
b1000000001011111 *
b1000000001011111 C
b110110100010110000000010111110 B
1'
#1940000
b0 >
0'
#1945000
b10111110 *
b10111110 C
b1101101000101100000000101111100 B
1'
#1950000
b1 >
b10 ;
b0 <
0'
#1955000
b101111100 *
b101111100 C
b11011010001011000000001011111001 B
1'
#1960000
b10 >
b11000 $
b11000 8
0'
#1965000
b1011111001 *
b1011111001 C
b10110100010110000000010111110011 B
1'
#1970000
b0 >
0'
#1975000
b10111110011 *
b10111110011 C
b1101000101100000000101111100111 B
1'
#1980000
b1 >
b1 <
0'
#1985000
b101111100111 *
b101111100111 C
b11010001011000000001011111001110 B
1'
#1990000
b10 >
b11001 $
b11001 8
0'
#1995000
b1011111001110 *
b1011111001110 C
b10100010110000000010111110011101 B
1'
#2000000
b0 >
0'
#2005000
b10111110011101 *
b10111110011101 C
b1000101100000000101111100111011 B
1'
#2010000
b1 >
b10 <
0'
#2015000
b101111100111011 *
b101111100111011 C
b10001011000000001011111001110110 B
1'
#2020000
b10 >
b11010 $
b11010 8
0'
#2025000
b1011111001110110 *
b1011111001110110 C
b10110000000010111110011101101 B
1'
#2030000
b11 >
0'
#2035000
b111110011101101 *
b111110011101101 C
b101100000000101111100111011011 B
1'
#2040000
b0 >
1!
b1111 $
b1111 8
0'
#2045000
b1111100111011011 *
b1111100111011011 C
b1011000000001011111001110110111 B
1'
#2050000
b1 >
0!
b101 ?
b0 ;
b0 <
0'
#2055000
b1111001110110111 *
b1111001110110111 C
b10110000000010111110011101101110 B
1'
#2060000
b10 >
b101 $
b101 8
0'
#2065000
b1110011101101110 *
b1110011101101110 C
b1100000000101111100111011011101 B
1'
#2070000
b0 >
0'
#2075000
b1100111011011101 *
b1100111011011101 C
b11000000001011111001110110111010 B
1'
#2080000
b1 >
b1 <
0'
#2085000
b1001110110111010 *
b1001110110111010 C
b10000000010111110011101101110100 B
1'
#2090000
b10 >
b110 $
b110 8
0'
#2095000
b11101101110100 *
b11101101110100 C
b101111100111011011101000 B
1'
#2100000
b0 >
0'
#2105000
b111011011101000 *
b111011011101000 C
b1011111001110110111010000 B
1'
#2110000
b1 >
b10 <
0'
#2115000
b1110110111010000 *
b1110110111010000 C
b10111110011101101110100001 B
1'
#2120000
b10 >
b111 $
b111 8
0'
#2125000
b1101101110100001 *
b1101101110100001 C
b101111100111011011101000010 B
1'
#2130000
b0 >
0'
#2135000
b1011011101000010 *
b1011011101000010 C
b1011111001110110111010000101 B
1'
#2140000
b1 >
b1 ;
b0 <
0'
#2145000
b110111010000101 *
b110111010000101 C
b10111110011101101110100001010 B
1'
#2150000
b10 >
b1111 $
b1111 8
0'
#2155000
b1101110100001010 *
b1101110100001010 C
b101111100111011011101000010101 B
1'
#2160000
b0 >
0'
#2165000
b1011101000010101 *
b1011101000010101 C
b1011111001110110111010000101011 B
1'
#2170000
b1 >
b1 <
0'
#2175000
b111010000101011 *
b111010000101011 C
b10111110011101101110100001010110 B
1'
#2180000
b10 >
b10000 $
b10000 8
0'
#2185000
b1110100001010110 *
b1110100001010110 C
b1111100111011011101000010101100 B
1'
#2190000
b0 >
0'
#2195000
b1101000010101100 *
b1101000010101100 C
b11111001110110111010000101011000 B
1'
#2200000
b1 >
b10 <
0'
#2205000
b1010000101011000 *
b1010000101011000 C
b11110011101101110100001010110001 B
1'
#2210000
b10 >
b10001 $
b10001 8
0'
#2215000
b100001010110001 *
b100001010110001 C
b11100111011011101000010101100011 B
1'
#2220000
b0 >
0'
#2225000
b1000010101100011 *
b1000010101100011 C
b11001110110111010000101011000110 B
1'
#2230000
b1 >
b10 ;
b0 <
0'
#2235000
b101011000110 *
b101011000110 C
b10011101101110100001010110001101 B
1'
#2240000
b10 >
b11001 $
b11001 8
0'
